<svg xmlns="http://www.w3.org/2000/svg" width="500" height="500" viewBox="0 0 500 500">
  <defs>
    <style>
      .cls-1 {
        fill-rule: evenodd;
      }
    </style>
  </defs>
  <path id="normal" class="cls-1" d="M66,0H434a66,66,0,0,1,66,66V434a66,66,0,0,1-66,66H66A66,66,0,0,1,0,434V66A66,66,0,0,1,66,0ZM301.633,440.612l-106-245.754V440.612H121.57V59.549h74.066L300.847,304.256l0.262-244.707h73.805V440.612H301.633Z"/>
</svg>
