<svg xmlns="http://www.w3.org/2000/svg" width="500" height="500" viewBox="0 0 500 500">
  <defs>
    <style>
      .cls-1 {
        fill: #e67e22;
      }

      .cls-2 {
        fill: #fff;
        fill-rule: evenodd;
      }
    </style>
  </defs>
  <rect id="bg" class="cls-1" width="500" height="500" rx="66" ry="66"/>
  <path id="application" class="cls-2" d="M196.683,361.049l-22.507,79.563H96.707L221.547,59.549h66.738L410.769,440.612H333.3l-22.247-79.563H196.683Zm97.1-62.55-39-140.282L214.742,298.5h79.039Z"/>
</svg>
