<svg xmlns="http://www.w3.org/2000/svg" width="500" height="500" viewBox="0 0 500 500">
  <defs>
    <style>
      .cls-1 {
        fill: #9b59b6;
      }

      .cls-2 {
        fill: #fff;
        fill-rule: evenodd;
      }
    </style>
  </defs>
  <rect id="bg" class="cls-1" width="500" height="500" rx="66" ry="66"/>
  <path id="search" class="cls-2" d="M317.99,322.053a46.909,46.909,0,0,0-11.908-16.75q-8.637-7.587-22.377-14t-34.154-11.908q-31.671-8.637-55.616-20.937T154.808,231.5a100.616,100.616,0,0,1-22.9-32.454,96.224,96.224,0,0,1-7.721-38.734q0-24.077,10.207-43.707A100.13,100.13,0,0,1,162.66,83.1q18.059-13.869,42.66-21.33a183.213,183.213,0,0,1,53.391-7.459q29.835,0,54.568,8.637T355.808,87.03A109.958,109.958,0,0,1,393.5,171.3H321.785a75.01,75.01,0,0,0-4.58-23.554A51.921,51.921,0,0,0,305.3,129.167a57.678,57.678,0,0,0-20.022-11.909q-11.911-4.318-27.873-4.318a87.879,87.879,0,0,0-26.041,3.533,57.916,57.916,0,0,0-19.236,9.815,43.66,43.66,0,0,0-11.908,15.31,44.589,44.589,0,0,0-4.057,18.975,35.938,35.938,0,0,0,5.365,19.367A51.478,51.478,0,0,0,217.1,195.381a123.069,123.069,0,0,0,24.733,12.825,308.478,308.478,0,0,0,32.846,10.73A278.931,278.931,0,0,1,312.1,232.284a202.57,202.57,0,0,1,32.715,18.058,135.438,135.438,0,0,1,35.856,39q13.347,22.249,13.347,51.3,0,25.125-10.076,44.623A95.3,95.3,0,0,1,356.07,418.1q-17.8,13.611-42.4,20.545a197.3,197.3,0,0,1-53.653,6.936,192.357,192.357,0,0,1-56.4-8.506q-27.873-8.5-48.549-24.994a121.983,121.983,0,0,1-31.014-38.211q-11.383-21.986-11.384-51.559h72.234q0.522,17.274,6.02,29.574a52.392,52.392,0,0,0,15.441,20.153,61.987,61.987,0,0,0,23.424,11.515,117.015,117.015,0,0,0,30.228,3.664,91.008,91.008,0,0,0,26.041-3.4A59.017,59.017,0,0,0,305.3,374.4a40.917,40.917,0,0,0,12.039-14.525,41.814,41.814,0,0,0,4.187-18.713A51.313,51.313,0,0,0,317.99,322.053Z"/>
</svg>
